{"failedCount":0,"prefixedPath":"classpath:com\/example\/ConfigDemo1.feature","packageQualifiedName":"com.example.ConfigDemo1","loopIndex":-1,"relativePath":"com\/example\/ConfigDemo1.feature","scenarioResults":[{"sectionIndex":0,"stepResults":[{"result":{"nanos":717500,"millis":0.7175,"status":"passed"},"step":{"background":true,"line":4,"prefix":"*","index":0,"text":"url baseURL"},"stepLog":"15:40:34.326 The value of env is :  null \n"},{"result":{"nanos":931700,"millis":0.9317,"status":"passed"},"step":{"background":true,"line":5,"prefix":"*","index":1,"text":"header Accept = 'application\/json'"}},{"result":{"nanos":1775100,"millis":1.7751,"status":"passed"},"step":{"line":8,"prefix":"Given","index":0,"text":"print name"},"stepLog":"15:40:34.373 [print] Kitkat \n"}],"line":7,"description":"","durationMillis":3.4243,"failed":false,"tags":["tagPlaceholder1","tagPlaceholder2"],"executorName":"main","name":"Config Demo 1","startTime":1728727834170,"refId":"[1:7]","endTime":1728727834373,"exampleIndex":-1},{"sectionIndex":1,"stepResults":[{"result":{"nanos":223200,"millis":0.2232,"status":"passed"},"step":{"background":true,"line":4,"prefix":"*","index":0,"text":"url baseURL"},"stepLog":"15:40:34.397 The value of env is :  null \n"},{"result":{"nanos":373500,"millis":0.3735,"status":"passed"},"step":{"background":true,"line":5,"prefix":"*","index":1,"text":"header Accept = 'application\/json'"}},{"result":{"nanos":1426500,"millis":1.4265,"status":"passed"},"step":{"line":12,"prefix":"Given","index":0,"text":"path '\/users?page=2'"}},{"result":{"nanos":1129102400,"millis":1129.1024,"status":"passed"},"step":{"line":13,"prefix":"When","index":1,"text":"method GET"},"stepLog":"15:40:34.670 request:\n1 > GET https:\/\/reqres.in\/api\/users%3Fpage=2\n1 > Accept: application\/json\n1 > Host: reqres.in\n1 > Connection: Keep-Alive\n1 > User-Agent: Apache-HttpClient\/4.5.14 (Java\/17.0.12)\n1 > Accept-Encoding: gzip,deflate\n\n\n15:40:35.500 response time in milliseconds: 813\n1 < 200\n1 < Date: Sat, 12 Oct 2024 10:10:36 GMT\n1 < Content-Type: application\/json; charset=utf-8\n1 < Transfer-Encoding: chunked\n1 < Connection: keep-alive\n1 < Report-To: {\"group\":\"heroku-nel\",\"max_age\":3600,\"endpoints\":[{\"url\":\"https:\/\/nel.heroku.com\/reports?ts=1728557516&sid=c4c9725f-1ab0-44d8-820f-430df2718e11&s=IUJjlrIjNKfiFXB0JawSy2hbHLK%2FQ5eCFL6N6SEZB2M%3D\"}]}\n1 < Reporting-Endpoints: heroku-nel=https:\/\/nel.heroku.com\/reports?ts=1728557516&sid=c4c9725f-1ab0-44d8-820f-430df2718e11&s=IUJjlrIjNKfiFXB0JawSy2hbHLK%2FQ5eCFL6N6SEZB2M%3D\n1 < Nel: {\"report_to\":\"heroku-nel\",\"max_age\":3600,\"success_fraction\":0.005,\"failure_fraction\":0.05,\"response_headers\":[\"Via\"]}\n1 < X-Powered-By: Express\n1 < Access-Control-Allow-Origin: *\n1 < Etag: W\/\"2c1-N6Rqerxquq2kgQhL51EiSg4x0R8\"\n1 < Via: 1.1 vegur\n1 < Cache-Control: max-age=14400\n1 < CF-Cache-Status: REVALIDATED\n1 < Vary: Accept-Encoding\n1 < Server: cloudflare\n1 < CF-RAY: 8d164d0e991985b3-BOM\n{\"page\":1,\"per_page\":6,\"total\":12,\"total_pages\":2,\"data\":[{\"id\":1,\"name\":\"cerulean\",\"year\":2000,\"color\":\"#98B2D1\",\"pantone_value\":\"15-4020\"},{\"id\":2,\"name\":\"fuchsia rose\",\"year\":2001,\"color\":\"#C74375\",\"pantone_value\":\"17-2031\"},{\"id\":3,\"name\":\"true red\",\"year\":2002,\"color\":\"#BF1932\",\"pantone_value\":\"19-1664\"},{\"id\":4,\"name\":\"aqua sky\",\"year\":2003,\"color\":\"#7BC4C4\",\"pantone_value\":\"14-4811\"},{\"id\":5,\"name\":\"tigerlily\",\"year\":2004,\"color\":\"#E2583E\",\"pantone_value\":\"17-1456\"},{\"id\":6,\"name\":\"blue turquoise\",\"year\":2005,\"color\":\"#53B0AE\",\"pantone_value\":\"15-5217\"}],\"support\":{\"url\":\"https:\/\/reqres.in\/#support-heading\",\"text\":\"To keep ReqRes free, contributions towards server costs are appreciated!\"}}\n\n"},{"result":{"nanos":27800,"millis":0.0278,"status":"passed"},"step":{"line":14,"prefix":"Then","index":2,"text":"status 200"}},{"result":{"nanos":7343900,"millis":7.3439,"status":"passed"},"step":{"line":15,"prefix":"And","index":3,"text":"print response"},"stepLog":"15:40:35.535 [print] {\n  \"page\": 1,\n  \"per_page\": 6,\n  \"total\": 12,\n  \"total_pages\": 2,\n  \"data\": [\n    {\n      \"id\": 1,\n      \"name\": \"cerulean\",\n      \"year\": 2000,\n      \"color\": \"#98B2D1\",\n      \"pantone_value\": \"15-4020\"\n    },\n    {\n      \"id\": 2,\n      \"name\": \"fuchsia rose\",\n      \"year\": 2001,\n      \"color\": \"#C74375\",\n      \"pantone_value\": \"17-2031\"\n    },\n    {\n      \"id\": 3,\n      \"name\": \"true red\",\n      \"year\": 2002,\n      \"color\": \"#BF1932\",\n      \"pantone_value\": \"19-1664\"\n    },\n    {\n      \"id\": 4,\n      \"name\": \"aqua sky\",\n      \"year\": 2003,\n      \"color\": \"#7BC4C4\",\n      \"pantone_value\": \"14-4811\"\n    },\n    {\n      \"id\": 5,\n      \"name\": \"tigerlily\",\n      \"year\": 2004,\n      \"color\": \"#E2583E\",\n      \"pantone_value\": \"17-1456\"\n    },\n    {\n      \"id\": 6,\n      \"name\": \"blue turquoise\",\n      \"year\": 2005,\n      \"color\": \"#53B0AE\",\n      \"pantone_value\": \"15-5217\"\n    }\n  ],\n  \"support\": {\n    \"url\": \"https:\/\/reqres.in\/#support-heading\",\n    \"text\": \"To keep ReqRes free, contributions towards server costs are appreciated!\"\n  }\n}\n \n"}],"line":11,"description":"","durationMillis":1138.4973,"failed":false,"tags":["tagPlaceholder1","tagPlaceholder2"],"executorName":"main","name":"Get Demo 1","startTime":1728727834397,"refId":"[2:11]","endTime":1728727835535,"exampleIndex":-1}],"callDepth":0,"name":"Config Demo","description":"","resultDate":"2024-10-12 03:40:35 pm","durationMillis":1141.9216,"passedCount":2}